<?xml version="1.0" encoding="utf-8"?>
<!-- Generator: Adobe Illustrator 16.0.0, SVG Export Plug-In . SVG Version: 6.00 Build 0)  -->
<!DOCTYPE svg PUBLIC "-//W3C//DTD SVG 1.1//EN" "http://www.w3.org/Graphics/SVG/1.1/DTD/svg11.dtd">
<svg version="1.1" id="Capa_1" xmlns="http://www.w3.org/2000/svg" xmlns:xlink="http://www.w3.org/1999/xlink" x="0px" y="0px"
	 width="512px" height="512px" viewBox="0 0 512 512" enable-background="new 0 0 512 512" xml:space="preserve">
<g>
	<path fill="#FFFFFF" d="M330.752,133.801c-24.771-3.065-49.985-2.628-74.989-3.749c-0.019,0.402-0.039,0.804-0.039,1.206
		c-15.707,0-31.414-0.12-47.111,0.05c-6.814,0.081-13.646,0.734-20.461,1.166c-32.58,2.111-54.065,22.003-54.93,54.442
		c-1.206,45.76-1.206,91.615,0.02,137.39c0.845,32.088,22.18,53.242,54.258,54.045c45.523,1.146,91.117,1.126,136.641,0.03
		c32.39-0.772,53.845-22.198,54.639-54.557c1.115-45.523,1.045-91.119,0.011-136.652
		C378.105,157.146,360.589,137.494,330.752,133.801z M255.854,333.461c-43.242-0.089-77.592-34.277-77.812-77.449
		c-0.231-43.534,34.138-78.225,77.642-78.381c43.514-0.15,78.104,34.298,78.185,77.837
		C333.947,298.941,299.318,333.552,255.854,333.461z M336.962,192.866c-9.867-0.065-18.41-8.623-18.38-18.42
		c0.01-9.959,8.312-18.043,18.491-18.039c10.432,0.01,18.119,7.718,18.079,18.144C355.122,184.706,346.942,192.931,336.962,192.866z
		"/>
	<path fill="#FFFFFF" d="M256.889,205.206c-28.459-0.286-51.04,21.562-51.281,49.609c-0.231,28.38,21.737,50.94,49.806,51.102
		c28.349,0.181,50.818-21.897,50.919-49.996C306.423,227.923,284.546,205.483,256.889,205.206z"/>
	<path fill="#FFFFFF" d="M256,0C114.842,0,0,114.842,0,256c0,141.147,114.842,256,256,256c141.147,0,256-114.853,256-256
		C512,114.842,397.168,0,256,0z M407.932,313.333c-0.522,4.462-1.256,8.924-1.508,13.406c-2.221,38.559-26.077,67.582-63.662,76.496
		c-9.478,2.271-19.346,2.904-29.033,4.291c-38.991,0-77.983,0-116.985,0c-3.969-0.513-7.918-1.276-11.908-1.498
		c-39.373-2.271-69.381-27.665-77.279-65.844c-1.628-7.838-2.352-15.867-3.487-23.816c0-40.52,0-81.039,0-121.547
		c0.481-3.473,1.206-6.934,1.417-10.421c2.593-44.162,34.75-77.687,78.897-78.958c47.725-1.362,95.54-1.216,143.274-0.005
		c38.469,0.975,67.069,25.897,76.054,63.441c2.141,8.974,2.854,18.295,4.221,27.47C407.932,235.33,407.932,274.331,407.932,313.333z
		"/>
</g>
</svg>
